{
	"info": {
		"_postman_id": "a6da04b1-831b-47e3-a640-f408b2af9feb",
		"name": "PW2 - Dugo - P2 - FINAL",
		"schema": "https://schema.getpostman.com/json/collection/v2.1.0/collection.json"
	},
	"item": [
		{
			"name": "Exceptions",
			"item": [
				{
					"name": "Productos",
					"item": [
						{
							"name": "1 Post Producto - Sin Descripción",
							"request": {
								"method": "POST",
								"header": [],
								"body": {
									"mode": "raw",
									"raw": "{\r\n\t\"description\": \"\",\r\n\t\"unitPrice\": 10.0,\r\n\t\"stock\": 100\r\n}",
									"options": {
										"raw": {
											"language": "json"
										}
									}
								},
								"url": {
									"raw": "localhost:8080/products",
									"host": [
										"localhost"
									],
									"port": "8080",
									"path": [
										"products"
									]
								}
							},
							"response": []
						},
						{
							"name": "1 Post Producto - Sin Stock",
							"request": {
								"method": "POST",
								"header": [],
								"body": {
									"mode": "raw",
									"raw": "{\r\n\t\"description\": \"Producto Test\",\r\n\t\"unitPrice\": 10.0,\r\n\t\"stock\": 0\r\n}",
									"options": {
										"raw": {
											"language": "json"
										}
									}
								},
								"url": {
									"raw": "localhost:8080/products",
									"host": [
										"localhost"
									],
									"port": "8080",
									"path": [
										"products"
									]
								}
							},
							"response": []
						},
						{
							"name": "1 Post Producto - Sin Precio",
							"request": {
								"method": "POST",
								"header": [],
								"body": {
									"mode": "raw",
									"raw": "{\r\n\t\"description\": \"Producto Test\",\r\n\t\"unitPrice\": 0,\r\n\t\"stock\": 10\r\n}",
									"options": {
										"raw": {
											"language": "json"
										}
									}
								},
								"url": {
									"raw": "localhost:8080/products",
									"host": [
										"localhost"
									],
									"port": "8080",
									"path": [
										"products"
									]
								}
							},
							"response": []
						}
					],
					"protocolProfileBehavior": {},
					"_postman_isSubFolder": true
				},
				{
					"name": "Carritos",
					"item": [
						{
							"name": "1 Post - Carrito - Invalid - No mail",
							"request": {
								"method": "POST",
								"header": [],
								"body": {
									"mode": "raw",
									"raw": "{\r\n  \"email\": \"\",\r\n  \"fullName\": \"Carrito 1\"\r\n}",
									"options": {
										"raw": {
											"language": "json"
										}
									}
								},
								"url": {
									"raw": "localhost:8080/carts",
									"host": [
										"localhost"
									],
									"port": "8080",
									"path": [
										"carts"
									]
								}
							},
							"response": []
						},
						{
							"name": "1 Post - Carrito - duplicate",
							"request": {
								"method": "POST",
								"header": [],
								"body": {
									"mode": "raw",
									"raw": "{\r\n  \"email\": \"carritouno@uno.com\",\r\n  \"fullName\": \"Carrito 1\"\r\n}",
									"options": {
										"raw": {
											"language": "json"
										}
									}
								},
								"url": {
									"raw": "localhost:8080/carts",
									"host": [
										"localhost"
									],
									"port": "8080",
									"path": [
										"carts"
									]
								}
							},
							"response": []
						},
						{
							"name": "2 Post - Add product 1  - Insuficiente Stock",
							"request": {
								"method": "POST",
								"header": [],
								"body": {
									"mode": "raw",
									"raw": "{\r\n    \"productId\": 1,\r\n    \"quantity\": 200\r\n}",
									"options": {
										"raw": {
											"language": "json"
										}
									}
								},
								"url": {
									"raw": "localhost:8080/carts/1/products",
									"host": [
										"localhost"
									],
									"port": "8080",
									"path": [
										"carts",
										"1",
										"products"
									]
								}
							},
							"response": []
						},
						{
							"name": "2 Post - Add product - Invalid data - quant 0",
							"request": {
								"method": "POST",
								"header": [],
								"body": {
									"mode": "raw",
									"raw": "{\r\n    \"productId\": 2,\r\n    \"quantity\": 0\r\n}",
									"options": {
										"raw": {
											"language": "json"
										}
									}
								},
								"url": {
									"raw": "localhost:8080/carts/1/products",
									"host": [
										"localhost"
									],
									"port": "8080",
									"path": [
										"carts",
										"1",
										"products"
									]
								}
							},
							"response": []
						},
						{
							"name": "2 Post - Add product - Invalid product - no existe",
							"request": {
								"method": "POST",
								"header": [],
								"body": {
									"mode": "raw",
									"raw": "{\r\n    \"productId\": 10,\r\n    \"quantity\": 20\r\n}",
									"options": {
										"raw": {
											"language": "json"
										}
									}
								},
								"url": {
									"raw": "localhost:8080/carts/1/products",
									"host": [
										"localhost"
									],
									"port": "8080",
									"path": [
										"carts",
										"1",
										"products"
									]
								}
							},
							"response": []
						},
						{
							"name": "2 Post - Add product - Invalid cart - no exist",
							"request": {
								"method": "POST",
								"header": [],
								"body": {
									"mode": "raw",
									"raw": "{\r\n    \"productId\": 1,\r\n    \"quantity\": 20\r\n}",
									"options": {
										"raw": {
											"language": "json"
										}
									}
								},
								"url": {
									"raw": "localhost:8080/carts/100/products",
									"host": [
										"localhost"
									],
									"port": "8080",
									"path": [
										"carts",
										"100",
										"products"
									]
								}
							},
							"response": []
						},
						{
							"name": "3 Delete - Producto del Carrito - Invalid Product",
							"request": {
								"method": "DELETE",
								"header": [],
								"url": {
									"raw": "localhost:8080/carts/1/products/50",
									"host": [
										"localhost"
									],
									"port": "8080",
									"path": [
										"carts",
										"1",
										"products",
										"50"
									]
								}
							},
							"response": []
						},
						{
							"name": "3 Delete - Producto del Carrito - Invalid Cart",
							"request": {
								"method": "DELETE",
								"header": [],
								"url": {
									"raw": "localhost:8080/carts/50/products/1",
									"host": [
										"localhost"
									],
									"port": "8080",
									"path": [
										"carts",
										"50",
										"products",
										"1"
									]
								}
							},
							"response": []
						},
						{
							"name": "4 Post - Checkout - Invalid Cart",
							"request": {
								"method": "POST",
								"header": [],
								"url": {
									"raw": "localhost:8080/carts/50/checkout",
									"host": [
										"localhost"
									],
									"port": "8080",
									"path": [
										"carts",
										"50",
										"checkout"
									]
								}
							},
							"response": []
						}
					],
					"protocolProfileBehavior": {},
					"_postman_isSubFolder": true
				}
			],
			"protocolProfileBehavior": {}
		},
		{
			"name": "Gets",
			"item": [
				{
					"name": "1 Get - Productos",
					"request": {
						"method": "GET",
						"header": [],
						"url": {
							"raw": "localhost:8080/products",
							"host": [
								"localhost"
							],
							"port": "8080",
							"path": [
								"products"
							]
						}
					},
					"response": []
				},
				{
					"name": "2 Get  {id} - Producto 2",
					"request": {
						"method": "GET",
						"header": [],
						"url": {
							"raw": "localhost:8080/products/2",
							"host": [
								"localhost"
							],
							"port": "8080",
							"path": [
								"products",
								"2"
							]
						}
					},
					"response": []
				},
				{
					"name": "3 Get Carritos",
					"request": {
						"method": "GET",
						"header": [],
						"url": {
							"raw": "localhost:8080/carts",
							"host": [
								"localhost"
							],
							"port": "8080",
							"path": [
								"carts"
							]
						}
					},
					"response": []
				},
				{
					"name": "4 Get Carrito 1",
					"request": {
						"method": "GET",
						"header": [],
						"url": {
							"raw": "localhost:8080/carts/1",
							"host": [
								"localhost"
							],
							"port": "8080",
							"path": [
								"carts",
								"1"
							]
						}
					},
					"response": []
				},
				{
					"name": "5 Get Carrito 2",
					"request": {
						"method": "GET",
						"header": [],
						"url": {
							"raw": "localhost:8080/carts/2",
							"host": [
								"localhost"
							],
							"port": "8080",
							"path": [
								"carts",
								"2"
							]
						}
					},
					"response": []
				},
				{
					"name": "6 Get productos del carrito 1",
					"request": {
						"method": "GET",
						"header": [],
						"url": {
							"raw": "localhost:8080/carts/1/products",
							"host": [
								"localhost"
							],
							"port": "8080",
							"path": [
								"carts",
								"1",
								"products"
							]
						}
					},
					"response": []
				},
				{
					"name": "7 Get productos del carrito 2",
					"request": {
						"method": "GET",
						"header": [],
						"url": {
							"raw": "localhost:8080/carts/2/products",
							"host": [
								"localhost"
							],
							"port": "8080",
							"path": [
								"carts",
								"2",
								"products"
							]
						}
					},
					"response": []
				}
			],
			"protocolProfileBehavior": {}
		},
		{
			"name": "Final",
			"item": [
				{
					"name": "BatchProcess - Status Processed or Failed",
					"request": {
						"method": "POST",
						"header": [],
						"url": {
							"raw": "localhost:8080/batch/processCarts",
							"host": [
								"localhost"
							],
							"port": "8080",
							"path": [
								"batch",
								"processCarts"
							]
						}
					},
					"response": []
				},
				{
					"name": "Get - Process Reportes All",
					"request": {
						"method": "GET",
						"header": [],
						"url": {
							"raw": "localhost:8080/batch/processCarts/",
							"host": [
								"localhost"
							],
							"port": "8080",
							"path": [
								"batch",
								"processCarts",
								""
							]
						}
					},
					"response": []
				},
				{
					"name": "Get - Process Cart by Dates",
					"request": {
						"method": "GET",
						"header": [],
						"url": {
							"raw": "localhost:8080/batch/processCarts/date?from=2020-08-01&to=2020-08-05",
							"host": [
								"localhost"
							],
							"port": "8080",
							"path": [
								"batch",
								"processCarts",
								"date"
							],
							"query": [
								{
									"key": "from",
									"value": "2020-08-01"
								},
								{
									"key": "to",
									"value": "2020-08-05"
								},
								{
									"key": "from",
									"value": "2020-08-01 00:00:00",
									"disabled": true
								},
								{
									"key": "to",
									"value": "2020-08-05 23:59:59",
									"disabled": true
								}
							]
						}
					},
					"response": []
				}
			],
			"protocolProfileBehavior": {}
		},
		{
			"name": "1 Post - Product 1",
			"request": {
				"method": "POST",
				"header": [],
				"body": {
					"mode": "raw",
					"raw": "{\n\t\"description\": \"Producto 1\",\n\t\"unitPrice\": 10.0,\n\t\"stock\": 100\n}",
					"options": {
						"raw": {
							"language": "json"
						}
					}
				},
				"url": {
					"raw": "localhost:8080/products",
					"host": [
						"localhost"
					],
					"port": "8080",
					"path": [
						"products"
					]
				}
			},
			"response": []
		},
		{
			"name": "2 Post - Product 2",
			"request": {
				"method": "POST",
				"header": [],
				"body": {
					"mode": "raw",
					"raw": "{\n\t\"description\": \"Producto 2\",\n\t\"unitPrice\": 20.0,\n\t\"stock\": 200\n}",
					"options": {
						"raw": {
							"language": "json"
						}
					}
				},
				"url": {
					"raw": "localhost:8080/products",
					"host": [
						"localhost"
					],
					"port": "8080",
					"path": [
						"products"
					]
				}
			},
			"response": []
		},
		{
			"name": "3 Post - Product 3",
			"request": {
				"method": "POST",
				"header": [],
				"body": {
					"mode": "raw",
					"raw": "{\n\t\"description\": \"Producto 3\",\n\t\"unitPrice\": 30.0,\n\t\"stock\": 300\n}",
					"options": {
						"raw": {
							"language": "json"
						}
					}
				},
				"url": {
					"raw": "localhost:8080/products",
					"host": [
						"localhost"
					],
					"port": "8080",
					"path": [
						"products"
					]
				}
			},
			"response": []
		},
		{
			"name": "4 Post - Product 4",
			"request": {
				"method": "POST",
				"header": [],
				"body": {
					"mode": "raw",
					"raw": "{\n\t\"description\": \"Producto 4\",\n\t\"unitPrice\": 30.0,\n\t\"stock\": 100\n}",
					"options": {
						"raw": {
							"language": "json"
						}
					}
				},
				"url": {
					"raw": "localhost:8080/products",
					"host": [
						"localhost"
					],
					"port": "8080",
					"path": [
						"products"
					]
				}
			},
			"response": []
		},
		{
			"name": "4 Post - Carrito 1",
			"request": {
				"method": "POST",
				"header": [],
				"body": {
					"mode": "raw",
					"raw": "{\r\n  \"email\": \"carritouno@uno.com\",\r\n  \"fullName\": \"Carrito 1\"\r\n}",
					"options": {
						"raw": {
							"language": "json"
						}
					}
				},
				"url": {
					"raw": "localhost:8080/carts",
					"host": [
						"localhost"
					],
					"port": "8080",
					"path": [
						"carts"
					]
				}
			},
			"response": []
		},
		{
			"name": "15 Put - Editar Carrito 1",
			"request": {
				"method": "PUT",
				"header": [],
				"body": {
					"mode": "raw",
					"raw": "{\r\n    \"fullName\": \"carrito1edited\",\r\n    \"email\": \"carrito1@edited.com\"\r\n}",
					"options": {
						"raw": {
							"language": "json"
						}
					}
				},
				"url": {
					"raw": "localhost:8080/carts/1",
					"host": [
						"localhost"
					],
					"port": "8080",
					"path": [
						"carts",
						"1"
					],
					"query": [
						{
							"key": "newName",
							"value": "Carrito1Edited",
							"disabled": true
						},
						{
							"key": "newEmail",
							"value": "carrito1@edited.com",
							"disabled": true
						}
					]
				}
			},
			"response": []
		},
		{
			"name": "5 Post - Carrito 2",
			"request": {
				"method": "POST",
				"header": [],
				"body": {
					"mode": "raw",
					"raw": "{\r\n  \"email\": \"carritodos@dos.com\",\r\n  \"fullName\": \"Carrito 2\"\r\n}",
					"options": {
						"raw": {
							"language": "json"
						}
					}
				},
				"url": {
					"raw": "localhost:8080/carts",
					"host": [
						"localhost"
					],
					"port": "8080",
					"path": [
						"carts"
					]
				}
			},
			"response": []
		},
		{
			"name": "6 Post - Carrito 3",
			"request": {
				"method": "POST",
				"header": [],
				"body": {
					"mode": "raw",
					"raw": "{\r\n  \"email\": \"carritotres@tres.com\",\r\n  \"fullName\": \"Carrito 3\"\r\n}",
					"options": {
						"raw": {
							"language": "json"
						}
					}
				},
				"url": {
					"raw": "localhost:8080/carts",
					"host": [
						"localhost"
					],
					"port": "8080",
					"path": [
						"carts"
					]
				}
			},
			"response": []
		},
		{
			"name": "7 Post - Carrito 4",
			"request": {
				"method": "POST",
				"header": [],
				"body": {
					"mode": "raw",
					"raw": "{\r\n  \"email\": \"carritocuatro@cuatro.com\",\r\n  \"fullName\": \"Carrito 4\"\r\n}",
					"options": {
						"raw": {
							"language": "json"
						}
					}
				},
				"url": {
					"raw": "localhost:8080/carts",
					"host": [
						"localhost"
					],
					"port": "8080",
					"path": [
						"carts"
					]
				}
			},
			"response": []
		},
		{
			"name": "8 Delete Carrito 4",
			"request": {
				"method": "DELETE",
				"header": [],
				"url": {
					"raw": "localhost:8080/carts/4",
					"host": [
						"localhost"
					],
					"port": "8080",
					"path": [
						"carts",
						"4"
					]
				}
			},
			"response": []
		},
		{
			"name": "9 Add product 1  - cart 1",
			"request": {
				"method": "POST",
				"header": [],
				"body": {
					"mode": "raw",
					"raw": "{\r\n    \"productId\": 1,\r\n    \"quantity\": 30\r\n}",
					"options": {
						"raw": {
							"language": "json"
						}
					}
				},
				"url": {
					"raw": "localhost:8080/carts/1/products",
					"host": [
						"localhost"
					],
					"port": "8080",
					"path": [
						"carts",
						"1",
						"products"
					]
				}
			},
			"response": []
		},
		{
			"name": "10 Add product 2  - cart 1",
			"request": {
				"method": "POST",
				"header": [],
				"body": {
					"mode": "raw",
					"raw": "{\r\n    \"productId\": 2,\r\n    \"quantity\": 20\r\n}",
					"options": {
						"raw": {
							"language": "json"
						}
					}
				},
				"url": {
					"raw": "localhost:8080/carts/1/products",
					"host": [
						"localhost"
					],
					"port": "8080",
					"path": [
						"carts",
						"1",
						"products"
					]
				}
			},
			"response": []
		},
		{
			"name": "12 Add product 3 - cart 1",
			"request": {
				"method": "POST",
				"header": [],
				"body": {
					"mode": "raw",
					"raw": "{\r\n    \"productId\": 3,\r\n    \"quantity\": 50\r\n}",
					"options": {
						"raw": {
							"language": "json"
						}
					}
				},
				"url": {
					"raw": "localhost:8080/carts/1/products",
					"host": [
						"localhost"
					],
					"port": "8080",
					"path": [
						"carts",
						"1",
						"products"
					]
				}
			},
			"response": []
		},
		{
			"name": "14 Delete Product 3 from cart 1",
			"request": {
				"method": "DELETE",
				"header": [],
				"url": {
					"raw": "localhost:8080/carts/1/products/3",
					"host": [
						"localhost"
					],
					"port": "8080",
					"path": [
						"carts",
						"1",
						"products",
						"3"
					]
				}
			},
			"response": []
		},
		{
			"name": "11 Add product 1 - cart 2 (for status failed)",
			"request": {
				"method": "POST",
				"header": [],
				"body": {
					"mode": "raw",
					"raw": "{\r\n    \"productId\": 1,\r\n    \"quantity\": 90\r\n}",
					"options": {
						"raw": {
							"language": "json"
						}
					}
				},
				"url": {
					"raw": "localhost:8080/carts/2/products",
					"host": [
						"localhost"
					],
					"port": "8080",
					"path": [
						"carts",
						"2",
						"products"
					]
				}
			},
			"response": []
		},
		{
			"name": "13 Add product 2 - cart 3",
			"request": {
				"method": "POST",
				"header": [],
				"body": {
					"mode": "raw",
					"raw": "{\r\n    \"productId\": 2,\r\n    \"quantity\": 5\r\n}",
					"options": {
						"raw": {
							"language": "json"
						}
					}
				},
				"url": {
					"raw": "localhost:8080/carts/3/products",
					"host": [
						"localhost"
					],
					"port": "8080",
					"path": [
						"carts",
						"3",
						"products"
					]
				}
			},
			"response": []
		},
		{
			"name": "16 Checkout - Carrito 1",
			"request": {
				"method": "POST",
				"header": [],
				"url": {
					"raw": "localhost:8080/carts/1/checkout",
					"host": [
						"localhost"
					],
					"port": "8080",
					"path": [
						"carts",
						"1",
						"checkout"
					]
				}
			},
			"response": []
		},
		{
			"name": "17 Checkout - Carrito 2",
			"request": {
				"method": "POST",
				"header": [],
				"url": {
					"raw": "localhost:8080/carts/2/checkout",
					"host": [
						"localhost"
					],
					"port": "8080",
					"path": [
						"carts",
						"2",
						"checkout"
					]
				}
			},
			"response": []
		},
		{
			"name": "18 Checkout - Carrito 3",
			"request": {
				"method": "POST",
				"header": [],
				"url": {
					"raw": "localhost:8080/carts/3/checkout",
					"host": [
						"localhost"
					],
					"port": "8080",
					"path": [
						"carts",
						"3",
						"checkout"
					]
				}
			},
			"response": []
		},
		{
			"name": "REALIZAR EL BATCH PROCESS AQUI PARA GENERAR DOS REPORTES",
			"request": {
				"method": "LINK",
				"header": [],
				"url": {
					"raw": "localhost:8080/carts/3/checkout",
					"host": [
						"localhost"
					],
					"port": "8080",
					"path": [
						"carts",
						"3",
						"checkout"
					]
				}
			},
			"response": []
		},
		{
			"name": "19 Post - Carrito 5",
			"request": {
				"method": "POST",
				"header": [],
				"body": {
					"mode": "raw",
					"raw": "{\r\n  \"email\": \"carritocinco@cinco.com\",\r\n  \"fullName\": \"Carrito 5\"\r\n}",
					"options": {
						"raw": {
							"language": "json"
						}
					}
				},
				"url": {
					"raw": "localhost:8080/carts",
					"host": [
						"localhost"
					],
					"port": "8080",
					"path": [
						"carts"
					]
				}
			},
			"response": []
		},
		{
			"name": "20 Post - Producto 5",
			"request": {
				"method": "POST",
				"header": [],
				"body": {
					"mode": "raw",
					"raw": "{\r\n\t\"description\": \"Producto 5\",\r\n\t\"unitPrice\": 10.0,\r\n\t\"stock\": 500\r\n}",
					"options": {
						"raw": {
							"language": "json"
						}
					}
				},
				"url": {
					"raw": "localhost:8080/products",
					"host": [
						"localhost"
					],
					"port": "8080",
					"path": [
						"products"
					]
				}
			},
			"response": []
		},
		{
			"name": "21 Add product 5 - cart 5",
			"request": {
				"method": "POST",
				"header": [],
				"body": {
					"mode": "raw",
					"raw": "{\r\n    \"productId\": 5,\r\n    \"quantity\": 10\r\n}",
					"options": {
						"raw": {
							"language": "json"
						}
					}
				},
				"url": {
					"raw": "localhost:8080/carts/5/products",
					"host": [
						"localhost"
					],
					"port": "8080",
					"path": [
						"carts",
						"5",
						"products"
					]
				}
			},
			"response": []
		},
		{
			"name": "22 Checkout - Carrito 5",
			"request": {
				"method": "POST",
				"header": [],
				"url": {
					"raw": "localhost:8080/carts/5/checkout",
					"host": [
						"localhost"
					],
					"port": "8080",
					"path": [
						"carts",
						"5",
						"checkout"
					]
				}
			},
			"response": []
		}
	],
	"protocolProfileBehavior": {}
}